{
  "version": 1,
  "root": {
    "level": "DEBUG",
    "propagate": true,
    "handlers": []
  },
  "loggers": {
    "main": {
      "level": "DEBUG",
      "propagate": true,
      "handlers": [
        "common_stdout"
      ]
    },
    "access": {
      "level": "DEBUG",
      "propagate": true,
      "handlers": [
        "http_file",
        "http_stdout"
      ]
    }
  },
  "handlers": {
    "common_stdout": {
      "class": "StdoutHandler",
      "level": "DEBUG",
      "formatter": "message"
    },
    "http_stdout": {
      "class": "StdoutHandler",
      "level": "DEBUG",
      "formatter": "common"
    },
    "http_file": {
      "class": "FileHandler",
      "level": "DEBUG",
      "filename": "./logs/access.log",
      "mode": "O_APPEND",
      "bufferSize": 0,
      "formatter": "common"
    }
  },
  "formatters": {
    "message": {
      "format": "%(levelname)s %(asctime)s %(message)s",
      "datefmt": "[%c]"
    },
    "common": {
      "format": "%(message)s"
    }
  }
}